('/home/beeliners/Documents/qek/build/main/main',
 True,
 False,
 True,
 None,
 None,
 False,
 False,
 None,
 True,
 True,
 False,
 None,
 None,
 None,
 '/home/beeliners/Documents/qek/build/main/main.pkg',
 [('PYZ-00.pyz', '/home/beeliners/Documents/qek/build/main/PYZ-00.pyz', 'PYZ'),
  ('struct',
   '/home/beeliners/Documents/qek/build/main/localpycs/struct.pyc',
   'PYMODULE'),
  ('pyimod01_archive',
   '/home/beeliners/Documents/qek/build/main/localpycs/pyimod01_archive.pyc',
   'PYMODULE'),
  ('pyimod02_importers',
   '/home/beeliners/Documents/qek/build/main/localpycs/pyimod02_importers.pyc',
   'PYMODULE'),
  ('pyimod03_ctypes',
   '/home/beeliners/Documents/qek/build/main/localpycs/pyimod03_ctypes.pyc',
   'PYMODULE'),
  ('pyiboot01_bootstrap',
   '/home/beeliners/.local/lib/python3.9/site-packages/PyInstaller/loader/pyiboot01_bootstrap.py',
   'PYSOURCE'),
  ('pyi_rth__tkinter',
   '/home/beeliners/.local/lib/python3.9/site-packages/PyInstaller/hooks/rthooks/pyi_rth__tkinter.py',
   'PYSOURCE'),
  ('main', '/home/beeliners/Documents/qek/main.py', 'PYSOURCE')],
 [],
 False,
 False,
 1690551684,
 [('run',
   '/home/beeliners/.local/lib/python3.9/site-packages/PyInstaller/bootloader/Linux-32bit-arm/run',
   'EXECUTABLE')])
