('/home/beeliners/Documents/qek/build/main/PYZ-00.pyz',
 [('RPi', '/usr/lib/python3/dist-packages/RPi/__init__.py', 'PYMODULE'),
  ('RPi.GPIO',
   '/usr/lib/python3/dist-packages/RPi/GPIO/__init__.py',
   'PYMODULE'),
  ('__future__', '/usr/lib/python3.9/__future__.py', 'PYMODULE'),
  ('_compat_pickle', '/usr/lib/python3.9/_compat_pickle.py', 'PYMODULE'),
  ('_compression', '/usr/lib/python3.9/_compression.py', 'PYMODULE'),
  ('_py_abc', '/usr/lib/python3.9/_py_abc.py', 'PYMODULE'),
  ('_pydecimal', '/usr/lib/python3.9/_pydecimal.py', 'PYMODULE'),
  ('_strptime', '/usr/lib/python3.9/_strptime.py', 'PYMODULE'),
  ('_threading_local', '/usr/lib/python3.9/_threading_local.py', 'PYMODULE'),
  ('argparse', '/usr/lib/python3.9/argparse.py', 'PYMODULE'),
  ('base64', '/usr/lib/python3.9/base64.py', 'PYMODULE'),
  ('bisect', '/usr/lib/python3.9/bisect.py', 'PYMODULE'),
  ('button', '/home/beeliners/Documents/qek/button.py', 'PYMODULE'),
  ('bz2', '/usr/lib/python3.9/bz2.py', 'PYMODULE'),
  ('calendar', '/usr/lib/python3.9/calendar.py', 'PYMODULE'),
  ('configparser', '/usr/lib/python3.9/configparser.py', 'PYMODULE'),
  ('contextlib', '/usr/lib/python3.9/contextlib.py', 'PYMODULE'),
  ('contextvars', '/usr/lib/python3.9/contextvars.py', 'PYMODULE'),
  ('copy', '/usr/lib/python3.9/copy.py', 'PYMODULE'),
  ('csv', '/usr/lib/python3.9/csv.py', 'PYMODULE'),
  ('ctypes', '/usr/lib/python3.9/ctypes/__init__.py', 'PYMODULE'),
  ('ctypes._endian', '/usr/lib/python3.9/ctypes/_endian.py', 'PYMODULE'),
  ('ctypes.wintypes', '/usr/lib/python3.9/ctypes/wintypes.py', 'PYMODULE'),
  ('datetime', '/usr/lib/python3.9/datetime.py', 'PYMODULE'),
  ('decimal', '/usr/lib/python3.9/decimal.py', 'PYMODULE'),
  ('email', '/usr/lib/python3.9/email/__init__.py', 'PYMODULE'),
  ('email._encoded_words',
   '/usr/lib/python3.9/email/_encoded_words.py',
   'PYMODULE'),
  ('email._header_value_parser',
   '/usr/lib/python3.9/email/_header_value_parser.py',
   'PYMODULE'),
  ('email._parseaddr', '/usr/lib/python3.9/email/_parseaddr.py', 'PYMODULE'),
  ('email._policybase', '/usr/lib/python3.9/email/_policybase.py', 'PYMODULE'),
  ('email.base64mime', '/usr/lib/python3.9/email/base64mime.py', 'PYMODULE'),
  ('email.charset', '/usr/lib/python3.9/email/charset.py', 'PYMODULE'),
  ('email.contentmanager',
   '/usr/lib/python3.9/email/contentmanager.py',
   'PYMODULE'),
  ('email.encoders', '/usr/lib/python3.9/email/encoders.py', 'PYMODULE'),
  ('email.errors', '/usr/lib/python3.9/email/errors.py', 'PYMODULE'),
  ('email.feedparser', '/usr/lib/python3.9/email/feedparser.py', 'PYMODULE'),
  ('email.generator', '/usr/lib/python3.9/email/generator.py', 'PYMODULE'),
  ('email.header', '/usr/lib/python3.9/email/header.py', 'PYMODULE'),
  ('email.headerregistry',
   '/usr/lib/python3.9/email/headerregistry.py',
   'PYMODULE'),
  ('email.iterators', '/usr/lib/python3.9/email/iterators.py', 'PYMODULE'),
  ('email.message', '/usr/lib/python3.9/email/message.py', 'PYMODULE'),
  ('email.parser', '/usr/lib/python3.9/email/parser.py', 'PYMODULE'),
  ('email.policy', '/usr/lib/python3.9/email/policy.py', 'PYMODULE'),
  ('email.quoprimime', '/usr/lib/python3.9/email/quoprimime.py', 'PYMODULE'),
  ('email.utils', '/usr/lib/python3.9/email/utils.py', 'PYMODULE'),
  ('fractions', '/usr/lib/python3.9/fractions.py', 'PYMODULE'),
  ('ftplib', '/usr/lib/python3.9/ftplib.py', 'PYMODULE'),
  ('getopt', '/usr/lib/python3.9/getopt.py', 'PYMODULE'),
  ('getpass', '/usr/lib/python3.9/getpass.py', 'PYMODULE'),
  ('gettext', '/usr/lib/python3.9/gettext.py', 'PYMODULE'),
  ('gzip', '/usr/lib/python3.9/gzip.py', 'PYMODULE'),
  ('hashlib', '/usr/lib/python3.9/hashlib.py', 'PYMODULE'),
  ('http', '/usr/lib/python3.9/http/__init__.py', 'PYMODULE'),
  ('http.client', '/usr/lib/python3.9/http/client.py', 'PYMODULE'),
  ('http.cookiejar', '/usr/lib/python3.9/http/cookiejar.py', 'PYMODULE'),
  ('importlib', '/usr/lib/python3.9/importlib/__init__.py', 'PYMODULE'),
  ('importlib._bootstrap',
   '/usr/lib/python3.9/importlib/_bootstrap.py',
   'PYMODULE'),
  ('importlib._bootstrap_external',
   '/usr/lib/python3.9/importlib/_bootstrap_external.py',
   'PYMODULE'),
  ('importlib.abc', '/usr/lib/python3.9/importlib/abc.py', 'PYMODULE'),
  ('importlib.machinery',
   '/usr/lib/python3.9/importlib/machinery.py',
   'PYMODULE'),
  ('importlib.metadata',
   '/usr/lib/python3.9/importlib/metadata.py',
   'PYMODULE'),
  ('importlib.util', '/usr/lib/python3.9/importlib/util.py', 'PYMODULE'),
  ('logging', '/usr/lib/python3.9/logging/__init__.py', 'PYMODULE'),
  ('lzma', '/usr/lib/python3.9/lzma.py', 'PYMODULE'),
  ('menu', '/home/beeliners/Documents/qek/menu.py', 'PYMODULE'),
  ('menu_handler', '/home/beeliners/Documents/qek/menu_handler.py', 'PYMODULE'),
  ('mimetypes', '/usr/lib/python3.9/mimetypes.py', 'PYMODULE'),
  ('netrc', '/usr/lib/python3.9/netrc.py', 'PYMODULE'),
  ('nturl2path', '/usr/lib/python3.9/nturl2path.py', 'PYMODULE'),
  ('numbers', '/usr/lib/python3.9/numbers.py', 'PYMODULE'),
  ('numpad', '/home/beeliners/Documents/qek/numpad.py', 'PYMODULE'),
  ('optparse', '/usr/lib/python3.9/optparse.py', 'PYMODULE'),
  ('pickle', '/usr/lib/python3.9/pickle.py', 'PYMODULE'),
  ('pprint', '/usr/lib/python3.9/pprint.py', 'PYMODULE'),
  ('py_compile', '/usr/lib/python3.9/py_compile.py', 'PYMODULE'),
  ('quopri', '/usr/lib/python3.9/quopri.py', 'PYMODULE'),
  ('random', '/usr/lib/python3.9/random.py', 'PYMODULE'),
  ('selectors', '/usr/lib/python3.9/selectors.py', 'PYMODULE'),
  ('serial', '/usr/lib/python3/dist-packages/serial/__init__.py', 'PYMODULE'),
  ('serial.serialcli',
   '/usr/lib/python3/dist-packages/serial/serialcli.py',
   'PYMODULE'),
  ('serial.serialjava',
   '/usr/lib/python3/dist-packages/serial/serialjava.py',
   'PYMODULE'),
  ('serial.serialposix',
   '/usr/lib/python3/dist-packages/serial/serialposix.py',
   'PYMODULE'),
  ('serial.serialutil',
   '/usr/lib/python3/dist-packages/serial/serialutil.py',
   'PYMODULE'),
  ('serial.serialwin32',
   '/usr/lib/python3/dist-packages/serial/serialwin32.py',
   'PYMODULE'),
  ('serial.win32',
   '/usr/lib/python3/dist-packages/serial/win32.py',
   'PYMODULE'),
  ('shlex', '/usr/lib/python3.9/shlex.py', 'PYMODULE'),
  ('shutil', '/usr/lib/python3.9/shutil.py', 'PYMODULE'),
  ('signal', '/usr/lib/python3.9/signal.py', 'PYMODULE'),
  ('socket', '/usr/lib/python3.9/socket.py', 'PYMODULE'),
  ('ssl', '/usr/lib/python3.9/ssl.py', 'PYMODULE'),
  ('statistics', '/usr/lib/python3.9/statistics.py', 'PYMODULE'),
  ('string', '/usr/lib/python3.9/string.py', 'PYMODULE'),
  ('stringprep', '/usr/lib/python3.9/stringprep.py', 'PYMODULE'),
  ('subprocess', '/usr/lib/python3.9/subprocess.py', 'PYMODULE'),
  ('tarfile', '/usr/lib/python3.9/tarfile.py', 'PYMODULE'),
  ('tempfile', '/usr/lib/python3.9/tempfile.py', 'PYMODULE'),
  ('textwrap', '/usr/lib/python3.9/textwrap.py', 'PYMODULE'),
  ('threading', '/usr/lib/python3.9/threading.py', 'PYMODULE'),
  ('tkinter', '/usr/lib/python3.9/tkinter/__init__.py', 'PYMODULE'),
  ('tkinter.constants', '/usr/lib/python3.9/tkinter/constants.py', 'PYMODULE'),
  ('tkinter.font', '/usr/lib/python3.9/tkinter/font.py', 'PYMODULE'),
  ('tracemalloc', '/usr/lib/python3.9/tracemalloc.py', 'PYMODULE'),
  ('typing', '/usr/lib/python3.9/typing.py', 'PYMODULE'),
  ('uu', '/usr/lib/python3.9/uu.py', 'PYMODULE'),
  ('zipfile', '/usr/lib/python3.9/zipfile.py', 'PYMODULE')])
